01:15:56.947059  [WARNING ][codejson]resp=http://127.0.0.1/plat/verify.php?verifyToken=1
01:15:56.947188  [INFO    ][login_req]suid=2&timestamp=1438737353&plataccount=dotcool&sign=50feefa03f514bfc07bbe7577887a82d&tocken=1&port=8001
01:15:56.947288  [ERROR   ][login] connect to[127.0.0.1:8001]  ok!
01:15:56.998898  [ERROR   ][login] finish!
04:06:58.640152  [WARNING ][codejson]resp=http://127.0.0.1/plat/verify.php?verifyToken=1
04:06:58.640258  [INFO    ][login_req]suid=2&timestamp=1438747593&plataccount=dotcool&sign=13f76ca9939b9fd3f0610e650dc80f54&tocken=1&port=8001
04:06:58.640443  [ERROR   ][login] connect to[127.0.0.1:8001]  ok!
04:06:58.691819  [ERROR   ][login] finish!
04:29:46.885365  [WARNING ][codejson]resp=http://127.0.0.1/plat/verify.php?verifyToken=1
04:29:46.885451  [INFO    ][login_req]suid=2&timestamp=1438748984&plataccount=dotcool&sign=6adb8e782193c043c6f477361e8a6a8c&tocken=1&port=8001
04:29:46.885598  [ERROR   ][login] connect to[127.0.0.1:8001]  ok!
04:29:46.936604  [ERROR   ][login] finish!
04:29:52.106949  [WARNING ][codejson]resp=http://127.0.0.1/plat/verify.php?verifyToken=1
04:29:52.107037  [INFO    ][login_req]suid=2&timestamp=1438748984&plataccount=dotcool&sign=6adb8e782193c043c6f477361e8a6a8c&tocken=1&port=8001
04:29:52.107182  [ERROR   ][login] connect to[127.0.0.1:8001]  ok!
04:29:52.158254  [ERROR   ][login] finish!
10:26:37.517750  [WARNING ][codejson]resp=http://127.0.0.1/plat/verify.php?verifyToken=1
10:26:37.517861  [INFO    ][login_req]suid=2&timestamp=1438770391&plataccount=dotcool&sign=04f5d21f0e10d8ba6f29a588a38d8dc8&tocken=1&port=8001
10:26:37.518224  [ERROR   ][login] connect to[127.0.0.1:8001]  ok!
10:26:37.569661  [ERROR   ][login] finish!
10:35:16.779421  [WARNING ][codejson]resp=http://127.0.0.1/plat/verify.php?verifyToken=1
10:35:16.779469  [INFO    ][login_req]suid=2&timestamp=1438770907&plataccount=dotcool&sign=9e2c909313d1ec7f8bdeeca8772c9e5f&tocken=1&port=8001
10:35:16.779611  [ERROR   ][login] connect to[127.0.0.1:8001]  ok!
10:35:16.881366  [ERROR   ][login] finish!
11:06:03.620820  [WARNING ][codejson]resp=http://127.0.0.1/plat/verify.php?verifyToken=1
11:06:03.620872  [INFO    ][login_req]suid=2&timestamp=1438772757&plataccount=dotcool&sign=a43f44195842a0ff496a4c892f719d3b&tocken=1&port=8001
11:06:03.621018  [ERROR   ][login] connect to[127.0.0.1:8001]  ok!
11:06:03.671992  [ERROR   ][login] finish!
11:06:14.724507  [WARNING ][codejson]resp=http://127.0.0.1/plat/verify.php?verifyToken=1
11:06:14.724558  [INFO    ][login_req]suid=2&timestamp=1438772757&plataccount=dotcool&sign=a43f44195842a0ff496a4c892f719d3b&tocken=1&port=8001
11:06:14.724701  [ERROR   ][login] connect to[127.0.0.1:8001]  ok!
11:06:14.775947  [ERROR   ][login] finish!
12:08:54.491160  [WARNING ][codejson]resp=http://127.0.0.1/plat/verify.php?verifyToken=1
12:08:54.491210  [INFO    ][login_req]suid=2&timestamp=1438776521&plataccount=dotcool&sign=3d4494378c5e4a6e91c766c4f723b94a&tocken=1&port=8001
12:08:54.491357  [ERROR   ][login] connect to[127.0.0.1:8001]  ok!
12:08:54.542701  [ERROR   ][login] finish!
12:18:39.481608  [WARNING ][codejson]resp=http://127.0.0.1/plat/verify.php?verifyToken=1
12:18:39.481672  [INFO    ][login_req]suid=2&timestamp=1438776521&plataccount=dotcool&sign=3d4494378c5e4a6e91c766c4f723b94a&tocken=1&port=8001
12:18:39.481770  [ERROR   ][login] connect to[127.0.0.1:8001]  ok!
12:18:39.533519  [ERROR   ][login] finish!
12:19:28.850411  [WARNING ][codejson]resp=http://127.0.0.1/plat/verify.php?verifyToken=1
12:19:28.850459  [INFO    ][login_req]suid=2&timestamp=1438776521&plataccount=dotcool&sign=3d4494378c5e4a6e91c766c4f723b94a&tocken=1&port=8001
12:19:28.850636  [ERROR   ][login] connect to[127.0.0.1:8001]  ok!
12:19:28.951997  [ERROR   ][login] finish!
